<svg width="18" height="18" viewBox="0 0 18 18" xmlns="http://www.w3.org/2000/svg">
<path d="M15.5091 12.528C14.4218 11.598 13.3182 11.0346 12.2442 11.9632L11.6029 12.5245C11.1336 12.9319 10.2612 14.8355 6.88809 10.9552C3.51568 7.07989 5.52255 6.4765 5.99248 6.0726L6.63732 5.51064C7.70573 4.57991 7.30253 3.40824 6.53196 2.20216L6.06694 1.47162C5.29285 0.268342 4.44993 -0.521901 3.37871 0.407425L2.7999 0.913181C2.32645 1.25808 1.00306 2.37917 0.682043 4.50897C0.295702 7.06444 1.51443 9.9908 4.30663 13.2016C7.09531 16.4139 9.82569 18.0274 12.4121 17.9993C14.5615 17.9761 15.8596 16.8227 16.2657 16.4034L16.8466 15.8969C17.915 14.9683 17.2512 14.0228 16.1631 13.0907L15.5091 12.528Z" />
</svg>
